{
  "blacklist": [],
  "whitelist": [],
  "notify_plugins": [
    {
      "name": "dingTalk",
      "config": {
        "token": "7981770e07df26effc9174601fb0c51901203283b0aa463ce7282c7e99a807bc",
        "secret": "SEC2a4ac35ff176a29d943c4d3dee06546e11303a98e9f23fd987e9f310bf3bce1e",
        "is_at_all": true
      }
    }
  ]
}
