{
    "url": "http://localhost:2368",
    "server": {
        "port": 2368,
        "host": "0.0.0.0"
    },
    "database": {
        "client": "sqlite3",
        "connection": {
            "filename": "/var/lib/ghost/content/data/ghost.db"
        }
    },
    "mail": {
        "transport": "SMTP",
        "options": {
            "service": "Mailgun",
            "auth": {
                "user": "postmaster@sandbox4871f23fb3074ff99e1d53f869bd3cc9.mailgun.org",
                "pass": "0054f34f1da73595cd6efe4733417e8f-e51d0a44-ca373701"
            }
        }
    },
    "logging": {
        "transports": [
            "file",
            "stdout"
        ]
    },
    "process": "systemd",
    "paths": {
        "contentPath": "/var/lib/ghost/content"
    }
}